{
	"info": {
		"_postman_id": "7050389d-ece6-439d-816e-3ace8102b41c",
		"name": "generated from schema Copy",
		"schema": "https://schema.getpostman.com/json/collection/v2.1.0/collection.json",
		"_uid": "813214-7050389d-ece6-439d-816e-3ace8102b41c"
	},
	"item": [
		{
			"name": "pets",
			"item": [
				{
					"name": "List all pets",
					"id": "7e2b4046-0ab7-4d15-80ef-bea5ff7e9262",
					"protocolProfileBehavior": {
						"disableBodyPruning": true
					},
					"request": {
						"method": "GET",
						"header": [
							{
								"key": "Accept",
								"value": "application/json"
							}
						],
						"url": {
							"raw": "{{baseUrl}}/pets?limit=71277093",
							"host": [
								"{{baseUrl}}"
							],
							"path": [
								"pets"
							],
							"query": [
								{
									"key": "limit",
									"value": "71277093",
									"description": "How many items to return at one time (max 100)"
								}
							]
						}
					},
					"response": [
						{
							"id": "6ac43f71-9d14-49ce-81bf-5ad10edd2b03",
							"name": "A paged array of pets",
							"originalRequest": {
								"method": "GET",
								"header": [
									{
										"key": "Accept",
										"value": "application/json"
									}
								],
								"url": {
									"raw": "{{baseUrl}}/pets?limit=71277093",
									"host": [
										"{{baseUrl}}"
									],
									"path": [
										"pets"
									],
									"query": [
										{
											"key": "limit",
											"value": "71277093",
											"description": "How many items to return at one time (max 100)"
										}
									]
								}
							},
							"status": "OK",
							"code": 200,
							"_postman_previewlanguage": "json",
							"header": [
								{
									"disabled": false,
									"description": "A link to the next page of responses",
									"key": "x-next",
									"value": "aute"
								},
								{
									"key": "Content-Type",
									"value": "application/json"
								}
							],
							"cookie": [],
							"body": "[\n  {\n    \"id\": 84515940,\n    \"name\": \"id dolore\",\n    \"tag\": \"ut co\"\n  },\n  {\n    \"id\": 33808341,\n    \"name\": \"\",\n    \"tag\": \"proident eu\"\n  }\n]"
						},
						{
							"id": "7c1d1895-b7d5-46ad-b9ac-a4beb98ae5ad",
							"name": "unexpected error",
							"originalRequest": {
								"method": "GET",
								"header": [
									{
										"key": "Accept",
										"value": "application/json"
									}
								],
								"url": {
									"raw": "{{baseUrl}}/pets?limit=71277093",
									"host": [
										"{{baseUrl}}"
									],
									"path": [
										"pets"
									],
									"query": [
										{
											"key": "limit",
											"value": "71277093",
											"description": "How many items to return at one time (max 100)"
										}
									]
								}
							},
							"status": "Internal Server Error",
							"code": 500,
							"_postman_previewlanguage": "json",
							"header": [
								{
									"key": "Content-Type",
									"value": "application/json"
								}
							],
							"cookie": [],
							"body": "{\n  \"code\": -86388828,\n  \"message\": \"sit minim nulla sed tempor\"\n}"
						}
					]
				},
				{
					"name": "Create a pet",
					"id": "8afea8cb-2f45-458b-a39f-8ce660eedc10",
					"protocolProfileBehavior": {
						"disableBodyPruning": true
					},
					"request": {
						"method": "POST",
						"header": [
							{
								"key": "Accept",
								"value": "application/json"
							}
						],
						"url": {
							"raw": "{{baseUrl}}/pets",
							"host": [
								"{{baseUrl}}"
							],
							"path": [
								"pets"
							]
						}
					},
					"response": [
						{
							"id": "2cf41a6d-c63e-4d92-a0a5-204a849f3999",
							"name": "Null response",
							"originalRequest": {
								"method": "POST",
								"header": [
									{
										"key": "Accept",
										"value": "application/json"
									}
								],
								"url": {
									"raw": "{{baseUrl}}/pets",
									"host": [
										"{{baseUrl}}"
									],
									"path": [
										"pets"
									]
								}
							},
							"status": "Created",
							"code": 201,
							"_postman_previewlanguage": "text",
							"header": [
								{
									"key": "Content-Type",
									"value": "text/plain"
								}
							],
							"cookie": [],
							"body": ""
						},
						{
							"id": "5ec86ebe-60b8-4d1f-a32b-607d41262555",
							"name": "unexpected error",
							"originalRequest": {
								"method": "POST",
								"header": [
									{
										"key": "Accept",
										"value": "application/json"
									}
								],
								"url": {
									"raw": "{{baseUrl}}/pets",
									"host": [
										"{{baseUrl}}"
									],
									"path": [
										"pets"
									]
								}
							},
							"status": "Internal Server Error",
							"code": 500,
							"_postman_previewlanguage": "json",
							"header": [
								{
									"key": "Content-Type",
									"value": "application/json"
								}
							],
							"cookie": [],
							"body": "{\n  \"code\": -86388828,\n  \"message\": \"sit minim nulla sed tempor\"\n}"
						}
					]
				},
				{
					"name": "Info for a specific pet",
					"id": "db766491-88b3-40d6-bdea-eaa179eeb961",
					"protocolProfileBehavior": {
						"disableBodyPruning": true
					},
					"request": {
						"method": "GET",
						"header": [
							{
								"key": "Accept",
								"value": "application/json"
							}
						],
						"url": {
							"raw": "{{baseUrl}}/pets/:petId",
							"host": [
								"{{baseUrl}}"
							],
							"path": [
								"pets",
								":petId"
							],
							"variable": [
								{
									"id": "b29aa375-583a-4a15-9e07-b9e2f8d543e3",
									"key": "petId",
									"value": "aute",
									"description": "(Required) The id of the pet to retrieve"
								}
							]
						}
					},
					"response": [
						{
							"id": "4cba6b1c-796e-455d-9cb7-58379aec45ef",
							"name": "Expected response to a valid request",
							"originalRequest": {
								"method": "GET",
								"header": [
									{
										"key": "Accept",
										"value": "application/json"
									}
								],
								"url": {
									"raw": "{{baseUrl}}/pets/:petId",
									"host": [
										"{{baseUrl}}"
									],
									"path": [
										"pets",
										":petId"
									],
									"variable": [
										{
											"id": "b29aa375-583a-4a15-9e07-b9e2f8d543e3",
											"key": "petId",
											"value": "aute",
											"description": "(Required) The id of the pet to retrieve"
										}
									]
								}
							},
							"status": "OK",
							"code": 200,
							"_postman_previewlanguage": "json",
							"header": [
								{
									"key": "Content-Type",
									"value": "application/json"
								}
							],
							"cookie": [],
							"body": "{\n  \"id\": 42308478,\n  \"name\": \"Duis\",\n  \"tag\": \"sit sunt\"\n}"
						},
						{
							"id": "35265219-e858-44ea-b59e-05b6d3600952",
							"name": "unexpected error",
							"originalRequest": {
								"method": "GET",
								"header": [
									{
										"key": "Accept",
										"value": "application/json"
									}
								],
								"url": {
									"raw": "{{baseUrl}}/pets/:petId",
									"host": [
										"{{baseUrl}}"
									],
									"path": [
										"pets",
										":petId"
									],
									"variable": [
										{
											"id": "b29aa375-583a-4a15-9e07-b9e2f8d543e3",
											"key": "petId",
											"value": "aute",
											"description": "(Required) The id of the pet to retrieve"
										}
									]
								}
							},
							"status": "Internal Server Error",
							"code": 500,
							"_postman_previewlanguage": "json",
							"header": [
								{
									"key": "Content-Type",
									"value": "application/json"
								}
							],
							"cookie": [],
							"body": "{\n  \"code\": -86388828,\n  \"message\": \"sit minim nulla sed tempor\"\n}"
						}
					]
				}
			],
			"id": "60d21c70-ecc3-4684-87fc-5d6f08e1c256"
		}
	],
	"auth": {
		"type": "basic",
		"basic": [
			{
				"key": "username",
				"value": "<Basic Auth Username>",
				"type": "string"
			},
			{
				"key": "password",
				"value": "<Basic Auth Password>",
				"type": "string"
			}
		]
	},
	"variable": [
		{
			"id": "3b719fa4-b635-4c77-a9e6-bc0cdaf1a0e3",
			"key": "baseUrl",
			"value": "https://petstore.swagger.io/v1",
			"type": "string"
		}
	]
}