{
	"info": {
		"_postman_id": "003922a0-707c-4cc2-a630-b64ef6d0eaee",
		"name": "generated from schema Copy 2",
		"schema": "https://schema.getpostman.com/json/collection/v2.1.0/collection.json",
		"_uid": "813214-003922a0-707c-4cc2-a630-b64ef6d0eaee"
	},
	"item": [
		{
			"name": "pets",
			"item": [
				{
					"name": "List all pets",
					"id": "06d1058a-0eb8-49a7-aa1d-b5eb2ae2ec0a",
					"protocolProfileBehavior": {
						"disableBodyPruning": true
					},
					"request": {
						"method": "GET",
						"header": [
							{
								"key": "Accept",
								"value": "application/json"
							}
						],
						"url": {
							"raw": "{{baseUrl}}/pets?limit=71277093",
							"host": [
								"{{baseUrl}}"
							],
							"path": [
								"pets"
							],
							"query": [
								{
									"key": "limit",
									"value": "71277093",
									"description": "How many items to return at one time (max 100)"
								}
							]
						}
					},
					"response": [
						{
							"id": "1e433160-2d4e-487f-977a-e2402d295d79",
							"name": "A paged array of pets",
							"originalRequest": {
								"method": "GET",
								"header": [
									{
										"key": "Accept",
										"value": "application/json"
									}
								],
								"url": {
									"raw": "{{baseUrl}}/pets?limit=71277093",
									"host": [
										"{{baseUrl}}"
									],
									"path": [
										"pets"
									],
									"query": [
										{
											"key": "limit",
											"value": "71277093",
											"description": "How many items to return at one time (max 100)"
										}
									]
								}
							},
							"status": "OK",
							"code": 200,
							"_postman_previewlanguage": "json",
							"header": [
								{
									"disabled": false,
									"description": "A link to the next page of responses",
									"key": "x-next",
									"value": "aute"
								},
								{
									"key": "Content-Type",
									"value": "application/json"
								}
							],
							"cookie": [],
							"body": "[\n  {\n    \"id\": 84515940,\n    \"name\": \"id dolore\",\n    \"tag\": \"ut co\"\n  },\n  {\n    \"id\": 33808341,\n    \"name\": \"\",\n    \"tag\": \"proident eu\"\n  }\n]"
						},
						{
							"id": "fb658fab-eef1-4e73-8acd-3bcd02efdd31",
							"name": "unexpected error",
							"originalRequest": {
								"method": "GET",
								"header": [
									{
										"key": "Accept",
										"value": "application/json"
									}
								],
								"url": {
									"raw": "{{baseUrl}}/pets?limit=71277093",
									"host": [
										"{{baseUrl}}"
									],
									"path": [
										"pets"
									],
									"query": [
										{
											"key": "limit",
											"value": "71277093",
											"description": "How many items to return at one time (max 100)"
										}
									]
								}
							},
							"status": "Internal Server Error",
							"code": 500,
							"_postman_previewlanguage": "json",
							"header": [
								{
									"key": "Content-Type",
									"value": "application/json"
								}
							],
							"cookie": [],
							"body": "{\n  \"code\": -86388828,\n  \"message\": \"sit minim nulla sed tempor\"\n}"
						}
					]
				},
				{
					"name": "Create a pet",
					"id": "7487191c-8d50-4984-a1c3-2cd7334bc5dd",
					"protocolProfileBehavior": {
						"disableBodyPruning": true
					},
					"request": {
						"method": "POST",
						"header": [
							{
								"key": "Accept",
								"value": "application/json"
							}
						],
						"url": {
							"raw": "{{baseUrl}}/pets",
							"host": [
								"{{baseUrl}}"
							],
							"path": [
								"pets"
							]
						}
					},
					"response": [
						{
							"id": "fd631d3f-d608-4dc3-ae74-2f4fa12e7942",
							"name": "Null response",
							"originalRequest": {
								"method": "POST",
								"header": [
									{
										"key": "Accept",
										"value": "application/json"
									}
								],
								"url": {
									"raw": "{{baseUrl}}/pets",
									"host": [
										"{{baseUrl}}"
									],
									"path": [
										"pets"
									]
								}
							},
							"status": "Created",
							"code": 201,
							"_postman_previewlanguage": "text",
							"header": [
								{
									"key": "Content-Type",
									"value": "text/plain"
								}
							],
							"cookie": [],
							"body": ""
						},
						{
							"id": "661572be-1e8d-4a87-8bde-b2af0554f0f1",
							"name": "unexpected error",
							"originalRequest": {
								"method": "POST",
								"header": [
									{
										"key": "Accept",
										"value": "application/json"
									}
								],
								"url": {
									"raw": "{{baseUrl}}/pets",
									"host": [
										"{{baseUrl}}"
									],
									"path": [
										"pets"
									]
								}
							},
							"status": "Internal Server Error",
							"code": 500,
							"_postman_previewlanguage": "json",
							"header": [
								{
									"key": "Content-Type",
									"value": "application/json"
								}
							],
							"cookie": [],
							"body": "{\n  \"code\": -86388828,\n  \"message\": \"sit minim nulla sed tempor\"\n}"
						}
					]
				},
				{
					"name": "Info for a specific pet",
					"id": "44c36478-a227-4a76-8132-3fe59cd9ae6d",
					"protocolProfileBehavior": {
						"disableBodyPruning": true
					},
					"request": {
						"method": "GET",
						"header": [
							{
								"key": "Accept",
								"value": "application/json"
							}
						],
						"url": {
							"raw": "{{baseUrl}}/pets/:petId",
							"host": [
								"{{baseUrl}}"
							],
							"path": [
								"pets",
								":petId"
							],
							"variable": [
								{
									"key": "petId",
									"value": "aute",
									"description": "(Required) The id of the pet to retrieve"
								}
							]
						}
					},
					"response": [
						{
							"id": "25f03b06-87fe-44ad-ae5e-1d938b777ae1",
							"name": "Expected response to a valid request",
							"originalRequest": {
								"method": "GET",
								"header": [
									{
										"key": "Accept",
										"value": "application/json"
									}
								],
								"url": {
									"raw": "{{baseUrl}}/pets/:petId",
									"host": [
										"{{baseUrl}}"
									],
									"path": [
										"pets",
										":petId"
									],
									"variable": [
										{
											"key": "petId",
											"value": "aute",
											"description": "(Required) The id of the pet to retrieve"
										}
									]
								}
							},
							"status": "OK",
							"code": 200,
							"_postman_previewlanguage": "json",
							"header": [
								{
									"key": "Content-Type",
									"value": "application/json"
								}
							],
							"cookie": [],
							"body": "{\n  \"id\": 42308478,\n  \"name\": \"Duis\",\n  \"tag\": \"sit sunt\"\n}"
						},
						{
							"id": "964a118a-f15e-4539-b463-ffe07d3e2fc6",
							"name": "unexpected error",
							"originalRequest": {
								"method": "GET",
								"header": [
									{
										"key": "Accept",
										"value": "application/json"
									}
								],
								"url": {
									"raw": "{{baseUrl}}/pets/:petId",
									"host": [
										"{{baseUrl}}"
									],
									"path": [
										"pets",
										":petId"
									],
									"variable": [
										{
											"key": "petId",
											"value": "aute",
											"description": "(Required) The id of the pet to retrieve"
										}
									]
								}
							},
							"status": "Internal Server Error",
							"code": 500,
							"_postman_previewlanguage": "json",
							"header": [
								{
									"key": "Content-Type",
									"value": "application/json"
								}
							],
							"cookie": [],
							"body": "{\n  \"code\": -86388828,\n  \"message\": \"sit minim nulla sed tempor\"\n}"
						}
					]
				}
			],
			"id": "b5f08c29-b56b-47e8-8a4c-114efeb95eae"
		}
	],
	"auth": {
		"type": "basic",
		"basic": [
			{
				"key": "username",
				"value": "<Basic Auth Username>",
				"type": "string"
			},
			{
				"key": "password",
				"value": "<Basic Auth Password>",
				"type": "string"
			}
		]
	},
	"variable": [
		{
			"id": "3b719fa4-b635-4c77-a9e6-bc0cdaf1a0e3",
			"key": "baseUrl",
			"value": "https://petstore.swagger.io/v1",
			"type": "string"
		}
	]
}